subject	description	imageUrl	imageType	type	categories	relatedSentiments	relatedSentimentIds		
Sports	Majority of the diverse population of India is young, with about 65% of the population under 35 years of age and thus has favourable demographic profile for sports. Cricket is perhaps the most played and watched sport, though hockey is considered the national sport of India and also the country has won eight Olympic gold medals in field hockey. Football is also quite a popular sport in some of the Indian states. Several games prevalent worldwide today can trace their origins to India including Chess, Snooker, Kabaddi and other regional games.   India is emerging as a key location for hosting several major sports events associated with Cricket, Tennis, Badminton, Hockey etc. India has hosted and co-hosted several international sporting events, including the 1951 and 1982 Asian Games, the 1987, 1996 and 2011 Cricket World Cup, the 2003 Afro-Asian Games, the 2010 Hockey World Cup and the 2010 Commonwealth Games.    Source: http://www.cppr.in/article/government-is-a-spoilsport/  	Sports.png	png	Permanent	Sports	Health	14		
Polls									
image	question	options	option1	option1					
poll-Image.jpg	What is the overall state of sports in India?	Good 	Bad						
poll-Image.jpg	Do you think we can compete with the world? 	Yes	No						
References									
filePath	fileType	description	attachmentType	title	provider	attachmentFilePath			
http://shodhganga.inflibnet.ac.in/bitstream/10603/29741/11/11_chapter-2.pdf	pdf	Reference1	File	Growth and Development of Sports in India since Independence					
http://yas.nic.in/sites/default/files/File918.compressed.pdf	pdf	Reference2	File	National Sports Development Code of India, 2011					
http://yas.nic.in/sites/default/files/FY_English_Annual%20Report_2015-16.pdf	pdf	Reference3	File	Ministry of Youth Affairs and Sports Annual Report 2015-16					
http://indiabudget.nic.in/ub2010-11/eb/dg105.pdf	pdf	Reference4	File	Budget for Sports in India					
http://yas.nic.in/sites/default/files/e-book-english2016.pdf	pdf	Reference5	File	E-book of Department of Youth Affairs					
SentimentNews									
feedSource	category	title	link	previewImagePath	htmlText	plainText	feedURL	feedName	writer